%YAML 1.1
%TAG !u! tag:unity3d.com,2011:
--- !u!1001 &1125794511022920709
PrefabInstance:
  m_ObjectHideFlags: 0
  serializedVersion: 2
  m_Modification:
    m_TransformParent: {fileID: 0}
    m_Modifications:
    - target: {fileID: 6012861497551285431, guid: 0aaad5507d1bebd4dac07b3d4017f793,
        type: 3}
      propertyPath: m_Name
      value: NovaMissile Red
      objectReference: {fileID: 0}
    - target: {fileID: 6012861497551285431, guid: 0aaad5507d1bebd4dac07b3d4017f793,
        type: 3}
      propertyPath: m_IsActive
      value: 1
      objectReference: {fileID: 0}
    - target: {fileID: 6012861497551563609, guid: 0aaad5507d1bebd4dac07b3d4017f793,
        type: 3}
      propertyPath: m_LocalPosition.x
      value: 0
      objectReference: {fileID: 0}
    - target: {fileID: 6012861497551563609, guid: 0aaad5507d1bebd4dac07b3d4017f793,
        type: 3}
      propertyPath: m_LocalPosition.y
      value: 0
      objectReference: {fileID: 0}
    - target: {fileID: 6012861497551563609, guid: 0aaad5507d1bebd4dac07b3d4017f793,
        type: 3}
      propertyPath: m_LocalPosition.z
      value: 0
      objectReference: {fileID: 0}
    - target: {fileID: 6012861497551563609, guid: 0aaad5507d1bebd4dac07b3d4017f793,
        type: 3}
      propertyPath: m_LocalRotation.x
      value: -0.7071068
      objectReference: {fileID: 0}
    - target: {fileID: 6012861497551563609, guid: 0aaad5507d1bebd4dac07b3d4017f793,
        type: 3}
      propertyPath: m_LocalRotation.y
      value: -0
      objectReference: {fileID: 0}
    - target: {fileID: 6012861497551563609, guid: 0aaad5507d1bebd4dac07b3d4017f793,
        type: 3}
      propertyPath: m_LocalRotation.z
      value: -0
      objectReference: {fileID: 0}
    - target: {fileID: 6012861497551563609, guid: 0aaad5507d1bebd4dac07b3d4017f793,
        type: 3}
      propertyPath: m_LocalRotation.w
      value: 0.7071068
      objectReference: {fileID: 0}
    - target: {fileID: 6012861497551563609, guid: 0aaad5507d1bebd4dac07b3d4017f793,
        type: 3}
      propertyPath: m_RootOrder
      value: 0
      objectReference: {fileID: 0}
    - target: {fileID: 6012861497551563609, guid: 0aaad5507d1bebd4dac07b3d4017f793,
        type: 3}
      propertyPath: m_LocalEulerAnglesHint.x
      value: -90
      objectReference: {fileID: 0}
    - target: {fileID: 6012861497551563609, guid: 0aaad5507d1bebd4dac07b3d4017f793,
        type: 3}
      propertyPath: m_LocalEulerAnglesHint.y
      value: 0
      objectReference: {fileID: 0}
    - target: {fileID: 6012861497551563609, guid: 0aaad5507d1bebd4dac07b3d4017f793,
        type: 3}
      propertyPath: m_LocalEulerAnglesHint.z
      value: 0
      objectReference: {fileID: 0}
    - target: {fileID: 6012861497532149499, guid: 0aaad5507d1bebd4dac07b3d4017f793,
        type: 3}
      propertyPath: ColorModule.gradient.maxGradient.key1.r
      value: 1
      objectReference: {fileID: 0}
    - target: {fileID: 6012861497532149499, guid: 0aaad5507d1bebd4dac07b3d4017f793,
        type: 3}
      propertyPath: ColorModule.gradient.maxGradient.key1.b
      value: 0
      objectReference: {fileID: 0}
    - target: {fileID: 6012861497532149499, guid: 0aaad5507d1bebd4dac07b3d4017f793,
        type: 3}
      propertyPath: ColorModule.gradient.maxGradient.key2.r
      value: 1
      objectReference: {fileID: 0}
    - target: {fileID: 6012861497532149499, guid: 0aaad5507d1bebd4dac07b3d4017f793,
        type: 3}
      propertyPath: ColorModule.gradient.maxGradient.key2.g
      value: 0.22179562
      objectReference: {fileID: 0}
    - target: {fileID: 6012861497532149499, guid: 0aaad5507d1bebd4dac07b3d4017f793,
        type: 3}
      propertyPath: ColorModule.gradient.maxGradient.key2.b
      value: 0.09803921
      objectReference: {fileID: 0}
    - target: {fileID: 6012861497532149499, guid: 0aaad5507d1bebd4dac07b3d4017f793,
        type: 3}
      propertyPath: ColorModule.gradient.maxGradient.ctime1
      value: 30055
      objectReference: {fileID: 0}
    - target: {fileID: 6012861497532149499, guid: 0aaad5507d1bebd4dac07b3d4017f793,
        type: 3}
      propertyPath: ColorModule.gradient.maxGradient.key1.g
      value: 0.07738835
      objectReference: {fileID: 0}
    - target: {fileID: 6012861497532091213, guid: 0aaad5507d1bebd4dac07b3d4017f793,
        type: 3}
      propertyPath: ColorModule.gradient.maxGradient.key1.r
      value: 1
      objectReference: {fileID: 0}
    - target: {fileID: 6012861497532091213, guid: 0aaad5507d1bebd4dac07b3d4017f793,
        type: 3}
      propertyPath: ColorModule.gradient.maxGradient.key1.b
      value: 0
      objectReference: {fileID: 0}
    - target: {fileID: 6012861497532091213, guid: 0aaad5507d1bebd4dac07b3d4017f793,
        type: 3}
      propertyPath: ColorModule.gradient.maxGradient.key2.r
      value: 1
      objectReference: {fileID: 0}
    - target: {fileID: 6012861497532091213, guid: 0aaad5507d1bebd4dac07b3d4017f793,
        type: 3}
      propertyPath: ColorModule.gradient.maxGradient.key2.g
      value: 0.22179562
      objectReference: {fileID: 0}
    - target: {fileID: 6012861497532091213, guid: 0aaad5507d1bebd4dac07b3d4017f793,
        type: 3}
      propertyPath: ColorModule.gradient.maxGradient.key2.b
      value: 0.09803921
      objectReference: {fileID: 0}
    - target: {fileID: 6012861497532091213, guid: 0aaad5507d1bebd4dac07b3d4017f793,
        type: 3}
      propertyPath: ColorModule.gradient.maxGradient.ctime1
      value: 30055
      objectReference: {fileID: 0}
    - target: {fileID: 6012861497532091213, guid: 0aaad5507d1bebd4dac07b3d4017f793,
        type: 3}
      propertyPath: ColorModule.gradient.maxGradient.ctime2
      value: 65388
      objectReference: {fileID: 0}
    - target: {fileID: 6012861497532091213, guid: 0aaad5507d1bebd4dac07b3d4017f793,
        type: 3}
      propertyPath: ColorModule.gradient.maxGradient.atime1
      value: 65535
      objectReference: {fileID: 0}
    - target: {fileID: 6012861497532091213, guid: 0aaad5507d1bebd4dac07b3d4017f793,
        type: 3}
      propertyPath: ColorModule.gradient.maxGradient.key1.g
      value: 0.07738835
      objectReference: {fileID: 0}
    - target: {fileID: 6012861497532092503, guid: 0aaad5507d1bebd4dac07b3d4017f793,
        type: 3}
      propertyPath: ColorModule.gradient.maxGradient.key0.r
      value: 1
      objectReference: {fileID: 0}
    - target: {fileID: 6012861497532092503, guid: 0aaad5507d1bebd4dac07b3d4017f793,
        type: 3}
      propertyPath: ColorModule.gradient.maxGradient.key1.r
      value: 1
      objectReference: {fileID: 0}
    - target: {fileID: 6012861497532092503, guid: 0aaad5507d1bebd4dac07b3d4017f793,
        type: 3}
      propertyPath: ColorModule.gradient.maxGradient.key1.g
      value: 0.07738835
      objectReference: {fileID: 0}
    - target: {fileID: 6012861497532092503, guid: 0aaad5507d1bebd4dac07b3d4017f793,
        type: 3}
      propertyPath: ColorModule.gradient.maxGradient.key1.b
      value: 0
      objectReference: {fileID: 0}
    - target: {fileID: 6012861497532092503, guid: 0aaad5507d1bebd4dac07b3d4017f793,
        type: 3}
      propertyPath: ColorModule.gradient.maxGradient.key1.a
      value: 0
      objectReference: {fileID: 0}
    - target: {fileID: 6012861497532092503, guid: 0aaad5507d1bebd4dac07b3d4017f793,
        type: 3}
      propertyPath: ColorModule.gradient.maxGradient.key2.r
      value: 1
      objectReference: {fileID: 0}
    - target: {fileID: 6012861497532092503, guid: 0aaad5507d1bebd4dac07b3d4017f793,
        type: 3}
      propertyPath: ColorModule.gradient.maxGradient.key2.g
      value: 1
      objectReference: {fileID: 0}
    - target: {fileID: 6012861497532092503, guid: 0aaad5507d1bebd4dac07b3d4017f793,
        type: 3}
      propertyPath: ColorModule.gradient.maxGradient.ctime0
      value: 0
      objectReference: {fileID: 0}
    - target: {fileID: 6012861497532092503, guid: 0aaad5507d1bebd4dac07b3d4017f793,
        type: 3}
      propertyPath: ColorModule.gradient.maxGradient.ctime1
      value: 30055
      objectReference: {fileID: 0}
    - target: {fileID: 6012861497532092503, guid: 0aaad5507d1bebd4dac07b3d4017f793,
        type: 3}
      propertyPath: ColorModule.gradient.maxGradient.ctime2
      value: 65535
      objectReference: {fileID: 0}
    - target: {fileID: 6012861497532092503, guid: 0aaad5507d1bebd4dac07b3d4017f793,
        type: 3}
      propertyPath: ColorModule.gradient.maxGradient.m_NumColorKeys
      value: 3
      objectReference: {fileID: 0}
    - target: {fileID: 6012861497532092503, guid: 0aaad5507d1bebd4dac07b3d4017f793,
        type: 3}
      propertyPath: ColorModule.gradient.maxGradient.key0.a
      value: 1
      objectReference: {fileID: 0}
    - target: {fileID: 6012861497532092503, guid: 0aaad5507d1bebd4dac07b3d4017f793,
        type: 3}
      propertyPath: ColorModule.gradient.maxGradient.key0.g
      value: 0.22179562
      objectReference: {fileID: 0}
    - target: {fileID: 6012861497532092503, guid: 0aaad5507d1bebd4dac07b3d4017f793,
        type: 3}
      propertyPath: ColorModule.gradient.maxGradient.key0.b
      value: 0.09803921
      objectReference: {fileID: 0}
    - target: {fileID: 6012861497532092503, guid: 0aaad5507d1bebd4dac07b3d4017f793,
        type: 3}
      propertyPath: ColorModule.gradient.maxGradient.key2.b
      value: 1
      objectReference: {fileID: 0}
    - target: {fileID: 6012861497532092503, guid: 0aaad5507d1bebd4dac07b3d4017f793,
        type: 3}
      propertyPath: ColorModule.gradient.maxGradient.atime0
      value: 0
      objectReference: {fileID: 0}
    - target: {fileID: 6012861497532092503, guid: 0aaad5507d1bebd4dac07b3d4017f793,
        type: 3}
      propertyPath: ColorModule.gradient.maxGradient.atime1
      value: 65535
      objectReference: {fileID: 0}
    - target: {fileID: 6012861497532092503, guid: 0aaad5507d1bebd4dac07b3d4017f793,
        type: 3}
      propertyPath: ColorModule.gradient.maxGradient.key2.a
      value: 1
      objectReference: {fileID: 0}
    - target: {fileID: 6012861497532092503, guid: 0aaad5507d1bebd4dac07b3d4017f793,
        type: 3}
      propertyPath: ColorModule.gradient.maxGradient.m_NumAlphaKeys
      value: 2
      objectReference: {fileID: 0}
    - target: {fileID: 6012861497532201713, guid: 0aaad5507d1bebd4dac07b3d4017f793,
        type: 3}
      propertyPath: ColorModule.gradient.maxGradient.key0.a
      value: 0
      objectReference: {fileID: 0}
    - target: {fileID: 6012861497532201713, guid: 0aaad5507d1bebd4dac07b3d4017f793,
        type: 3}
      propertyPath: ColorModule.gradient.maxGradient.key1.r
      value: 1
      objectReference: {fileID: 0}
    - target: {fileID: 6012861497532201713, guid: 0aaad5507d1bebd4dac07b3d4017f793,
        type: 3}
      propertyPath: ColorModule.gradient.maxGradient.key1.b
      value: 0
      objectReference: {fileID: 0}
    - target: {fileID: 6012861497532201713, guid: 0aaad5507d1bebd4dac07b3d4017f793,
        type: 3}
      propertyPath: ColorModule.gradient.maxGradient.key1.a
      value: 1
      objectReference: {fileID: 0}
    - target: {fileID: 6012861497532201713, guid: 0aaad5507d1bebd4dac07b3d4017f793,
        type: 3}
      propertyPath: ColorModule.gradient.maxGradient.key2.r
      value: 1
      objectReference: {fileID: 0}
    - target: {fileID: 6012861497532201713, guid: 0aaad5507d1bebd4dac07b3d4017f793,
        type: 3}
      propertyPath: ColorModule.gradient.maxGradient.key2.g
      value: 0.22179562
      objectReference: {fileID: 0}
    - target: {fileID: 6012861497532201713, guid: 0aaad5507d1bebd4dac07b3d4017f793,
        type: 3}
      propertyPath: ColorModule.gradient.maxGradient.key2.b
      value: 0.09803921
      objectReference: {fileID: 0}
    - target: {fileID: 6012861497532201713, guid: 0aaad5507d1bebd4dac07b3d4017f793,
        type: 3}
      propertyPath: ColorModule.gradient.maxGradient.ctime1
      value: 30055
      objectReference: {fileID: 0}
    - target: {fileID: 6012861497532201713, guid: 0aaad5507d1bebd4dac07b3d4017f793,
        type: 3}
      propertyPath: ColorModule.gradient.maxGradient.atime1
      value: 65535
      objectReference: {fileID: 0}
    - target: {fileID: 6012861497532201713, guid: 0aaad5507d1bebd4dac07b3d4017f793,
        type: 3}
      propertyPath: ColorModule.gradient.maxGradient.m_NumAlphaKeys
      value: 2
      objectReference: {fileID: 0}
    - target: {fileID: 6012861497532201713, guid: 0aaad5507d1bebd4dac07b3d4017f793,
        type: 3}
      propertyPath: ColorModule.gradient.maxGradient.key1.g
      value: 0.07738835
      objectReference: {fileID: 0}
    - target: {fileID: 6012861497532153505, guid: 0aaad5507d1bebd4dac07b3d4017f793,
        type: 3}
      propertyPath: ColorModule.gradient.maxGradient.key1.r
      value: 1
      objectReference: {fileID: 0}
    - target: {fileID: 6012861497532153505, guid: 0aaad5507d1bebd4dac07b3d4017f793,
        type: 3}
      propertyPath: ColorModule.gradient.maxGradient.key1.b
      value: 0
      objectReference: {fileID: 0}
    - target: {fileID: 6012861497532153505, guid: 0aaad5507d1bebd4dac07b3d4017f793,
        type: 3}
      propertyPath: ColorModule.gradient.maxGradient.key2.r
      value: 1
      objectReference: {fileID: 0}
    - target: {fileID: 6012861497532153505, guid: 0aaad5507d1bebd4dac07b3d4017f793,
        type: 3}
      propertyPath: ColorModule.gradient.maxGradient.key2.g
      value: 0.22179562
      objectReference: {fileID: 0}
    - target: {fileID: 6012861497532153505, guid: 0aaad5507d1bebd4dac07b3d4017f793,
        type: 3}
      propertyPath: ColorModule.gradient.maxGradient.key2.b
      value: 0.09803921
      objectReference: {fileID: 0}
    - target: {fileID: 6012861497532153505, guid: 0aaad5507d1bebd4dac07b3d4017f793,
        type: 3}
      propertyPath: ColorModule.gradient.maxGradient.ctime1
      value: 30055
      objectReference: {fileID: 0}
    - target: {fileID: 6012861497532153505, guid: 0aaad5507d1bebd4dac07b3d4017f793,
        type: 3}
      propertyPath: ColorModule.gradient.maxGradient.key1.g
      value: 0.07738835
      objectReference: {fileID: 0}
    - target: {fileID: 6012861497532153505, guid: 0aaad5507d1bebd4dac07b3d4017f793,
        type: 3}
      propertyPath: ColorModule.gradient.maxGradient.key0.a
      value: 0
      objectReference: {fileID: 0}
    m_RemovedComponents: []
  m_SourcePrefab: {fileID: 100100000, guid: 0aaad5507d1bebd4dac07b3d4017f793, type: 3}
